…
### Scaling Up

In reality, we’re more interested in handling larger data sets. Here’s a
larger file obtained using `rtweet::stream_tweets()` that has been
compressed to an 18 Mb .gz file (153 Mb uncompressed).

``` r
rtweet_stream_path <- "inst/example-data/api-stream.json.gz"
big_rtweet_stream <- read_tweets(rtweet_stream_path)

tibble::as_tibble(big_rtweet_stream)
```

    #> # A tibble: 22,760 x 71
    #>    user_id status_id created_at          screen_name text  source
    #>    <chr>   <chr>     <dttm>              <chr>       <chr> <chr> 
    #>  1 807195~ 11780078~ 2019-09-28 18:05:23 ykaoi0327   "RT ~ "<a h~
    #>  2 114393~ 11780078~ 2019-09-28 18:05:23 yowasugi723 "@Di~ "<a h~
    #>  3 247059~ 11780078~ 2019-09-28 18:05:23 itsauroras~ "RT ~ "<a h~
    #>  4 822602~ 11780078~ 2019-09-28 18:05:23 Darrell894~ RT @~ "<a h~
    #>  5 797200~ 11780078~ 2019-09-28 18:05:23 NastyWoman~ @Bra~ "<a h~
    #>  6 110779~ 11780078~ 2019-09-28 18:05:23 DeshaunAwe~ met ~ "<a h~
    #>  7 110441~ 11780078~ 2019-09-28 18:05:23 diamondy_u  "RT ~ "<a h~
    #>  8 359294~ 11780078~ 2019-09-28 18:05:23 piyakat28   "RT ~ "<a h~
    #>  9 194250~ 11780078~ 2019-09-28 18:05:23 Stgo_centro RT @~ "<a h~
    #> 10 116013~ 11780078~ 2019-09-28 18:05:23 119lonwi_y~ RT @~ "<a h~
    #> # ... with 22,750 more rows, and 65 more variables:
    #> #   reply_to_status_id <chr>, reply_to_user_id <chr>,
    #> #   reply_to_screen_name <chr>, is_quote <lgl>, is_retweeted <lgl>,
    #> #   hashtags <list>, urls_expanded_url <list>, media_expanded_url <list>,
    #> #   mentions_user_id <list>, mentions_screen_name <list>, lang <chr>,
    #> #   quoted_status_id <chr>, quoted_text <chr>, quoted_created_at <dttm>,
    #> #   quoted_source <chr>, quoted_favorite_count <int>,
    #> #   quoted_retweet_count <int>, quoted_user_id <chr>,
    #> #   quoted_screen_name <chr>, quoted_name <chr>,
…
