Extract All Users — extract_users • tweetio
…
      as_tibble
      Whether a tibble::tibble() should be returned. Ignored if the
{tibble} package is not installed.

      ...
      Arguments passed to or from other methods.

    Examples

path_to_tweet_file <- example_tweet_file()
tweet_df <- read_tweets(path_to_tweet_file)

extract_users(tweet_df, as_tibble = TRUE)
#> # A tibble: 1,356 x 20
#>    user_id timestamp_ms        name  screen_name location description url  
#>    <chr>   <dttm>              <chr> <chr>       <chr>    <chr>       <chr>
#>  1 194250… 2019-09-28 18:05:23 El S… Stgo_centro "CHILE"  aportando … NA   
#>  2 340309… 2019-09-28 18:05:23 Juan… jg_valdes   " Santi… ex Cancill… NA   
#>  3 825459… 2019-09-28 18:05:24 tayyy taylorxkas… "cali"   ya girl ta… NA   
#>  4 218889… 2019-09-28 18:05:24 Mark… markaduck   "On you… #Sooners #… NA   
#>  5 966825… 2019-09-28 18:05:24 unem… catholicnu… "♓︎"     I’M NOT A … NA   
#>  6 319340… 2019-09-28 18:05:24 NA    _CeeDeeThr…  NA      NA          NA   
#>  7 278758… 2019-09-28 18:05:24 NA    K1           NA      NA          NA   
#>  8 401300… 2019-09-28 18:05:25 mari… unmario     "Bentiv… «siamo tut… NA   
#>  9 294908… 2019-09-28 18:05:25 Ana … ALmardoza21 "Juárez… Hablo sola… NA   
#> 10 107959… 2019-09-28 18:05:25 NA    EsrodKatia   NA      NA          NA   
#> # … with 1,346 more rows, and 13 more variables: protected <lgl>,
#> #   followers_count <int>, friends_count <int>, listed_count <int>,
#> #   statuses_count <int>, favourites_count <int>, account_created_at <dttm>,
#> #   verified <lgl>, profile_url <chr>, account_lang <chr>,
#> #   profile_banner_url <chr>, profile_image_url <chr>, bbox_coords <list>

extract_users(tweet_df, summarize = FALSE, as_tibble = TRUE)
#> # A tibble: 1,917 x 20
#>    user_id timestamp_ms        name  screen_name location description url  
#>    <chr>   <dttm>              <chr> <chr>       <chr>    <chr>       <chr>
#>  1 194250… 2019-09-28 18:05:23 El S… Stgo_centro "CHILE"  aportando … NA   
#>  2 825459… 2019-09-28 18:05:24 tayyy taylorxkas… "cali"   ya girl ta… NA   
#>  3 218889… 2019-09-28 18:05:24 Mark… markaduck   "On you… #Sooners #… NA   
#>  4 401300… 2019-09-28 18:05:25 mari… unmario     "Bentiv… «siamo tut… NA   
#>  5 294908… 2019-09-28 18:05:25 Ana … ALmardoza21 "Juárez… Hablo sola… NA   
#>  6 111622… 2019-09-28 18:05:27 भरमे…  singhbhrme… "Bhopal… कर्म ही पू…   NA   
#>  7 231344… 2019-09-28 18:05:27 bárb… barbimoral… "perdid… maldita le… http…
#>  8 437465… 2019-09-28 18:05:27 Javi  javii_sotoo "Califo… NA          NA   
#>  9 117288… 2019-09-28 18:05:29 سما … nLfRH1       NA      لا اله الا… NA   
#> 10 113247… 2019-09-28 18:05:30 Becc… bexxxv97     NA      im here fo… NA   
#> # … with 1,907 more rows, and 13 more variables: protected <lgl>,
#> #   followers_count <int>, friends_count <int>, listed_count <int>,
#> #   statuses_count <int>, favourites_count <int>, account_created_at <dttm>,
#> #   verified <lgl>, profile_url <chr>, account_lang <chr>,
#> #   profile_banner_url <chr>, profile_image_url <chr>, bbox_coords <list>
…
