Read Tweets into a Data Frame — read_tweets • tweetio
…
if (requireNamespace("tibble", quietly = TRUE)) {
  read_tweets(file_path = path_to_tweet_file, as_tibble = TRUE)
}
#> # A tibble: 681 x 84
#>    user_id status_id created_at          screen_name text  source
#>    <chr>   <chr>     <dttm>              <chr>       <chr> <chr> 
#>  1 194250… 11780078… 2019-09-29 02:05:23 Stgo_centro "RT … "<a h…
#>  2 825459… 11780078… 2019-09-29 02:05:24 taylorxkas… "RT … "<a h…
#>  3 218889… 11780078… 2019-09-29 02:05:24 markaduck   "@_C… "<a h…
#>  4 401300… 11780078… 2019-09-29 02:05:25 unmario     "Fot… "<a h…
#>  5 294908… 11780078… 2019-09-29 02:05:25 ALmardoza21 "@Es… "<a h…
#>  6 111622… 11780078… 2019-09-29 02:05:27 singhbhrme… "RT … "<a h…
#>  7 231344… 11780078… 2019-09-29 02:05:27 barbimoral… "Mi … "<a h…
#>  8 437465… 11780078… 2019-09-29 02:05:27 javii_sotoo "RT … "<a h…
#>  9 117288… 11780078… 2019-09-29 02:05:29 nLfRH1      "RT … "<a h…
#> 10 113247… 11780078… 2019-09-29 02:05:30 bexxxv97    "RT … "<a h…
#> # … with 671 more rows, and 78 more variables: reply_to_status_id <chr>,
#> #   reply_to_user_id <chr>, reply_to_screen_name <chr>, is_quote <lgl>,
#> #   is_retweeted <lgl>, lang <chr>, name <chr>, location <chr>,
#> #   description <chr>, url <chr>, protected <lgl>, followers_count <int>,
#> #   friends_count <int>, listed_count <int>, statuses_count <int>,
#> #   favourites_count <int>, account_created_at <dttm>, verified <lgl>,
#> #   account_lang <chr>, profile_banner_url <chr>, profile_image_url <chr>,
#> #   contributors_enabled <lgl>, hashtags <list>, urls_expanded_url <list>,
#> #   media_url <list>, media_type <list>, mentions_user_id <list>,
…
